{
  "AppName":"wbprism001",
  "AppEnv":"nonprod",
  "AppRegion":"apac",
  "AppCountry":"sg",
  "TrouxId":"N/A",
  "AppSupport":"N/A",
  "WinVersion":"2016",
  "EC2InstanceType01":"m4.large",
  "EC2InstanceAppVolume01":"20",
  "WindowsDomain":"sg-lihi.com.sg",
  "AwsKeyName":"sg-master-key"
}